{
  "images" : [
    {
      "filename" : "thumbnail_station_type_ac_big.png",
      "idiom" : "universal",
      "scale" : "1x"
    },
    {
      "filename" : "thumbnail_station_type_ac_big@2x.png",
      "idiom" : "universal",
      "scale" : "2x"
    },
    {
      "filename" : "thumbnail_station_type_ac_big@3x.png",
      "idiom" : "universal",
      "scale" : "3x"
    }
  ],
  "info" : {
    "author" : "xcode",
    "version" : 1
  }
}
